{
  "data": [
    {
      "__type__": "GoodsOverview",
      "brand": {
        "__type__": "BrandOverview",
        "description": "착한가격 예쁜아이템 \n10대 쇼핑몰 소녀나라",
        "id": 3937,
        "name": "소녀나라"
      },
      "discountRate": 26,
      "id": 302608,
      "isDiscounted": true,
      "likeCount": 2944,
      "name": "[무배/국내생산] SAC017 갑질스타킹5종 (10매묶음) 13만장판매",
      "picture": {
        "__type__": "Picture",
        "id": "a95336c6-82da-4f84-bdf0-85251bf7565c",
        "originalHeight": 640,
        "originalWidth": 640
      },
      "price": 14800,
      "priceOriginal": 20000,
      "reviewsCount": 162,
      "status": "normal"
    },
    {
      "__type__": "GoodsOverview",
      "brand": {
        "__type__": "BrandOverview",
        "description": "NIKE(나이키)는 토탈 라이프스타일 브랜드로 이미 세계 1위 브랜드로 자리 잡았으며, 다양한 아티스트와 브랜드들과의 컬래버레이션으로 많은 분야에서 활동하며 압도적인 신발 판매량과 더불어 두터운 마니아층을 갖고 있는 브랜드입니다.",
        "id": 107,
        "name": "나이키"
      },
      "discountRate": 15,
      "id": 328594,
      "isDiscounted": true,
      "likeCount": 2278,
      "name": "나이키 우먼스 프로 올오버 메쉬 탑 S/S (AO9952-010)",
      "picture": {
        "__type__": "Picture",
        "id": "19c3b2ab-ae84-41e3-b244-21f748d0f6e5",
        "originalHeight": 600,
        "originalWidth": 600
      },
      "price": 34000,
      "priceOriginal": 39600,
      "reviewsCount": 2,
      "status": "normal"
    },
    {
      "__type__": "GoodsOverview",
      "brand": {
        "__type__": "BrandOverview",
        "description": "OPWEE(오프위)는 'Wee Optical art(아주 작은 시각적인 예술)' 와 'only for girls!'라는 슬로건 아래,\n오직 소녀들만을 위한 위트 있는 디자인으로 접근하여 새로운 시대의 활기참과 젊은 감성을 대변하는 창의적인 브랜드입니다.",
        "id": 4229,
        "name": "오프위"
      },
      "discountRate": 62,
      "id": 321819,
      "isDiscounted": true,
      "likeCount": 6051,
      "name": "[1+1] 오프위 신상 트레이닝PT 3종 (택2)",
      "picture": {
        "__type__": "Picture",
        "id": "426ee9c9-451d-4be5-9f82-ba3f44287689",
        "originalHeight": 720,
        "originalWidth": 720
      },
      "price": 33500,
      "priceOriginal": 88000,
      "reviewsCount": 166,
      "status": "normal"
    },
    {
      "__type__": "GoodsOverview",
      "brand": {
        "__type__": "BrandOverview",
        "description": "1507(일오공칠)은 아버지께 양말을 처음 배우러 갔던 창고 번지수입니다. \n양말이라는 단일 품목만을 고집하며, 2대에 걸친 양말 제작의 노하우로 \n높은 품질과 심플한 디자인의 양말만을 제작합니다. \n1507은 여러 필드에서 활동하고 있는 다양한 라이프 스타일의 사람들의 요구를 적극 반영하여, \n그들의 더 나은 삶을 위하여 노력하는 브랜드입니다.",
        "id": 2544,
        "name": "1507"
      },
      "discountRate": 67,
      "id": 280869,
      "isDiscounted": true,
      "likeCount": 14992,
      "name": "[단독상품] [5+5팩+무료배송] SCHOOL PACK - WHITE 일오공칠 스쿨팩 화이트컬러",
      "picture": {
        "__type__": "Picture",
        "id": "i5db2b566a22fe",
        "originalHeight": 700,
        "originalWidth": 700
      },
      "price": 10900,
      "priceOriginal": 33000,
      "reviewsCount": 1008,
      "status": "normal"
    },
    {
      "__type__": "GoodsOverview",
      "brand": {
        "__type__": "BrandOverview",
        "description": "일상에서 얻은 사소한 영감과 현재를 살아가면서 생기는 개인의 색을 떠올리며 블론드나인 만의 감성을 완성하고, 단조로운 일상에서 벗어나 베이직하지만 결코 지루하지 않은 아이템들을 제안하는 유니섹스 캐주얼 브랜드입니다.",
        "id": 4088,
        "name": "블론드나인"
      },
      "discountRate": 30,
      "id": 279186,
      "isDiscounted": true,
      "likeCount": 5599,
      "name": "BASIC KNIT CARDIGAN_MOCHA",
      "picture": {
        "__type__": "Picture",
        "id": "i5da03772d0931",
        "originalHeight": 1800,
        "originalWidth": 1800
      },
      "price": 39900,
      "priceOriginal": 57000,
      "reviewsCount": 38,
      "status": "normal"
    },
    {
      "__type__": "GoodsOverview",
      "brand": {
        "__type__": "BrandOverview",
        "description": "Champion(챔피온)은 1919년에 설립된 이후로 높은 퀄리티의 후디 및 메쉬 재질의 제품들을 생산함으로써 미국, 유럽, 일본 등 세계적으로 꾸준히 인기를 얻고 있는 스포츠 의류 브랜드입니다.",
        "id": 1513,
        "name": "챔피온"
      },
      "discountRate": 79,
      "id": 352792,
      "isDiscounted": true,
      "likeCount": 4733,
      "name": "[오직스쉐] 챔피온,나이키 완전 특가!",
      "picture": {
        "__type__": "Picture",
        "id": "109e5988-7384-4376-8b7d-a8a847c8e8f5",
        "originalHeight": 720,
        "originalWidth": 720
      },
      "price": 22900,
      "priceOriginal": 109000,
      "reviewsCount": 100,
      "status": "normal"
    },
    {
      "__type__": "GoodsOverview",
      "brand": {
        "__type__": "BrandOverview",
        "description": "NIKE(나이키)는 토탈 라이프스타일 브랜드로 이미 세계 1위 브랜드로 자리 잡았으며, 다양한 아티스트와 브랜드들과의 컬래버레이션으로 많은 분야에서 활동하며 압도적인 신발 판매량과 더불어 두터운 마니아층을 갖고 있는 브랜드입니다.",
        "id": 107,
        "name": "나이키"
      },
      "discountRate": 17,
      "id": 342242,
      "isDiscounted": true,
      "likeCount": 6177,
      "name": "나이키 우먼스 파크 7 저지 S/S (BV6728-010)",
      "picture": {
        "__type__": "Picture",
        "id": "43bd0f6f-19e7-4f2c-98e2-ae79e1d9442d",
        "originalHeight": 600,
        "originalWidth": 600
      },
      "price": 22000,
      "priceOriginal": 26400,
      "reviewsCount": 13,
      "status": "normal"
    },
    {
      "__type__": "GoodsOverview",
      "brand": {
        "__type__": "BrandOverview",
        "description": "UNI(유니)는 모두의 라는 뜻을 가진 프랑스어 UNIVERSEL의 UNI,\n특별하다는 UNIQUE의 뜻인 UNI의 의미를 더하여\n유니의 옷을 입은 모두가 특별한 사람 이라는 의미를 담아 만들어지는 옷입니다.\n높은 퀄리티와 디테일에 중점을 두며 유니만의 색감을 더해 합리적인 가격대로 제품을 선보입니다.",
        "id": 4147,
        "name": "유니"
      },
      "discountRate": 76,
      "id": 357209,
      "isDiscounted": true,
      "likeCount": 589,
      "name": "[위클리특가][1+1] [단독구성] 유니 20SS 인기 기모 맨투맨 13종",
      "picture": {
        "__type__": "Picture",
        "id": "dd1d0d73-7825-48eb-8bb6-a3a80d098b62",
        "originalHeight": 1000,
        "originalWidth": 1000
      },
      "price": 29000,
      "priceOriginal": 118000,
      "reviewsCount": 78,
      "status": "normal"
    },
    {
      "__type__": "GoodsOverview",
      "brand": {
        "__type__": "BrandOverview",
        "description": "WHO.A.U(후아유)는 1849년 청춘들이 꿈과 정체성을 위해 새로운 세상을 찾아 떠났던 캘리포니아 개척정신을 기반으로 하고 있습니다. 우리는 \"The Spirit of California\"을 따르고 있으며, 단순히 유행하는 패션을 따라가지 않습니다.",
        "id": 2012,
        "name": "후아유"
      },
      "discountRate": 10,
      "id": 354956,
      "isDiscounted": true,
      "likeCount": 1538,
      "name": "레트로 - 배색 바람막이 II  /WHJJA2311U",
      "picture": {
        "__type__": "Picture",
        "id": "bb56be5f-0918-4d06-a683-18063fc67939",
        "originalHeight": 1400,
        "originalWidth": 1400
      },
      "price": 54000,
      "priceOriginal": 59900,
      "reviewsCount": 6,
      "status": "normal"
    },
    {
      "__type__": "GoodsOverview",
      "brand": {
        "__type__": "BrandOverview",
        "description": "지프(JEEP)는 자유와 가능성의 상징으로 1941년에 탄생해 지금까지 그 명성을 잇는 브랜드입니다. 지프를 떠올릴 때 가장 먼저 생각이 나는 모험, 자유, 가치 그리고 오리지널리티에 기반을 두고 디자인하며 패션 라인은 오리지널 라인인 지프, 프리미엄 빈티지 캐주얼 지프 스피리트(JEEP SPIRIT), 라이프스타일 콘셉트의 지프 브랜드(JEEP BRAND), 아메리칸 헤리티지 감성의 지프 클래식 컬렉션(JEEP CLASSIC COLLECTION)으로 전개합니다.",
        "id": 4442,
        "name": "지프"
      },
      "discountRate": 20,
      "id": 329623,
      "isDiscounted": true,
      "likeCount": 4490,
      "name": "Logo T-shirts GK2TSU091 (6 color)",
      "picture": {
        "__type__": "Picture",
        "id": "6a429b53-5755-470f-88a9-fc131af20d3d",
        "originalHeight": 1500,
        "originalWidth": 1500
      },
      "price": 23200,
      "priceOriginal": 29000,
      "reviewsCount": 141,
      "status": "normal"
    }
  ],
  "paging": {
    "next": "/categories/best/goods?sort=score-desc&offset=10&limit=10&score_type=a"
  },
  "total": 202219
}
